<?xml version="1.0" encoding="UTF-8" standalone="no"?>
<!DOCTYPE svg PUBLIC "-//W3C//DTD SVG 1.1//EN" "http://www.w3.org/Graphics/SVG/1.1/DTD/svg11.dtd">
<svg width="100%" height="100%" viewBox="0 0 2560 1440" version="1.1" xmlns="http://www.w3.org/2000/svg" xmlns:xlink="http://www.w3.org/1999/xlink" xml:space="preserve" xmlns:serif="http://www.serif.com/" style="fill-rule:evenodd;clip-rule:evenodd;stroke-linejoin:round;stroke-miterlimit:2;">
    <path d="M1692.26,1267.28L1702.8,1162.35L1769.8,1162.35L1779.98,1147.35L1790.16,1162.35L1909.72,1162.35L1909.72,1125.74L1931.89,1125.74L1931.89,1162.35L1959.8,1162.35L1969.98,1147.35L1980.16,1162.35L2039.99,1162.35L2050.53,1267.28L2041.3,1267.28L2041.3,1396.82L2166.69,1396.82L2166.69,1267.28L2159.31,1267.28L2199.48,1221.94L2199.48,1178.2L2221.65,1178.2L2221.65,1196.93L2262.91,1150.36L2366.51,1267.28L2359.13,1267.28L2359.13,1299.39L2560,1299.39L2560,1440L-29.518,1440L-29.518,1396.82L177.001,1396.82L177.001,1267.28L166.428,1267.28L180.792,1162.35L439.68,1162.35L439.68,1125.74L461.847,1125.74L461.847,1162.35L574.984,1162.35L589.348,1267.28L578.774,1267.28L578.774,1396.82L933.611,1396.82L933.611,1353.64L928.075,1353.64L935.699,1248.72L1124.95,1248.72L1124.95,1214.82L1147.12,1214.82L1147.12,1248.72L1226.28,1248.72L1233.91,1353.64L1228.37,1353.64L1228.37,1396.82L1280,1396.82L1280,1267.28L1272.31,1267.28L1284.96,1162.35L1365.26,1162.35L1365.26,1125.74L1387.43,1125.74L1387.43,1162.35L1543.62,1162.35L1543.62,1125.74L1565.79,1125.74L1565.79,1162.35L1651.47,1162.35L1664.12,1267.28L1656.43,1267.28L1656.43,1396.82L1701.49,1396.82L1701.49,1267.28L1692.26,1267.28Z"/>
</svg>
